module gitlab.com/techschool/pcbook

go 1.13

require (
	github.com/golang/protobuf v1.3.2
	github.com/google/uuid v1.1.1
	github.com/jinzhu/copier v0.0.0-20190924061706-b57f9002281a
	github.com/stretchr/testify v1.4.0
	google.golang.org/grpc v1.26.0
)
